GF0604 Procesamiento de datos geográficos 2023-I - 9 Tidyverse - colección de paquetes para ciencia de datos
…
El empleo de este modelo de datos es común en todos los paquetes de Tidyverse, lo que posibilita aprender y usar sus funciones con mayor facilidad. Además, permite invertir menos esfuerzo en lidiar con diferentes modelos de datos y así dedicar más tiempo y esfuerzo en los problemas de análisis a resolver.

9.8 Pipes

Las funciones de Tidyverse pueden encadenarse a través del operador pipe (tubo), ya sea el del paquete magrittr (%>%) o el del paquete base de R (|>). Los procesos se enlazan con pipes para formar pipelines (tuberías). En este contexto, un pipeline consiste de una cadena de procesos conectados de forma tal que la salida de cada proceso de la cadena es la entrada del próximo. Esto permite la comunicación y sincronización entre los procesos y evita la anidación (nesting) de llamados a funciones.

El siguiente ejemplo implementa un pipeline de dos funciones de Tidyverse:

# Cadena de "pipes" entre funciones de Tidyverse
penguins |>
  dplyr::filter(species == "Gentoo") %>% # subconjunto de observaciones
  select(species, bill_length_mm, flipper_length_mm) # subconjunto de columnas

# A tibble: 124 × 3
   species bill_length_mm flipper_length_mm
   <fct>            <dbl>             <int>
 1 Gentoo            46.1               211
 2 Gentoo            50                 230
 3 Gentoo            48.7               210
 4 Gentoo            50                 218
 5 Gentoo            47.6               215
 6 Gentoo            46.5               210
 7 Gentoo            45.4               211
 8 Gentoo            46.7               219
 9 Gentoo            43.3               209
10 Gentoo            46.8               215
# ℹ 114 more rows

Una alternativa a los pipes es la anidación de llamados a funciones:

# Llamados anidados a funciones
select(filter(penguins, species == "Gentoo"),
       species,
       bill_length_mm,
       flipper_length_mm)

# A tibble: 124 × 3
   species bill_length_mm flipper_length_mm
   <fct>            <dbl>             <int>
 1 Gentoo            46.1               211
 2 Gentoo            50                 230
 3 Gentoo            48.7               210
 4 Gentoo            50                 218
 5 Gentoo            47.6               215
 6 Gentoo            46.5               210
 7 Gentoo            45.4               211
 8 Gentoo            46.7               219
 9 Gentoo            43.3               209
10 Gentoo            46.8               215
# ℹ 114 more rows
…
