GF0604 Procesamiento de datos geográficos 2023-I - 10 dplyr - gramática para manipulación de datos
…
Un conjunto de datos puede visualizarse al escribir su nombre en la consola de R o en un programa:

# Despliegue de los datos de penguins
penguins

# A tibble: 344 × 8
   species island    bill_length_mm bill_depth_mm flipper_length_mm body_mass_g
   <fct>   <fct>              <dbl>         <dbl>             <int>       <int>
 1 Adelie  Torgersen           39.1          18.7               181        3750
 2 Adelie  Torgersen           39.5          17.4               186        3800
 3 Adelie  Torgersen           40.3          18                 195        3250
 4 Adelie  Torgersen           NA            NA                  NA          NA
 5 Adelie  Torgersen           36.7          19.3               193        3450
 6 Adelie  Torgersen           39.3          20.6               190        3650
 7 Adelie  Torgersen           38.9          17.8               181        3625
 8 Adelie  Torgersen           39.2          19.6               195        4675
 9 Adelie  Torgersen           34.1          18.1               193        3475
10 Adelie  Torgersen           42            20.2               190        4250
# ℹ 334 more rows
# ℹ 2 more variables: sex <fct>, year <int>
…
En RStudio, un conjunto de datos completo puede verse más cómodamente con la función View().

10.6 Funciones

En esta sección, se describen y ejemplifican las principales funciones de dplyr.

10.6.1 select()

La función select() selecciona (y opcionalmente renombra) columnas de un data frame con base en sus nombres.

# Selección de las columnas species, bill_length_mm y sex
penguins |>
  select(species, bill_length_mm, sex)

# A tibble: 344 × 3
   species bill_length_mm sex   
   <fct>            <dbl> <fct> 
 1 Adelie            39.1 male  
 2 Adelie            39.5 female
 3 Adelie            40.3 female
 4 Adelie            NA   <NA>  
 5 Adelie            36.7 female
 6 Adelie            39.3 male  
 7 Adelie            38.9 female
 8 Adelie            39.2 male  
 9 Adelie            34.1 <NA>  
10 Adelie            42   <NA>  
# ℹ 334 more rows

Cambio de nombres de columnas:

# Selección y cambio de nombre de las columnas 
# species, bill_length_mm y sex
penguins |>
  select(especie = species,
         longitud_pico_mm = bill_length_mm,
         sexo = sex)

# A tibble: 344 × 3
   especie longitud_pico_mm sexo  
   <fct>              <dbl> <fct> 
 1 Adelie              39.1 male  
 2 Adelie              39.5 female
 3 Adelie              40.3 female
 4 Adelie              NA   <NA>  
 5 Adelie              36.7 female
 6 Adelie              39.3 male  
 7 Adelie              38.9 female
 8 Adelie              39.2 male  
 9 Adelie              34.1 <NA>  
10 Adelie              42   <NA>  
# ℹ 334 more rows

El operador : permite seleccionar un rango de columnas continuas:

# Selección de las columnas desde species a flipper_length_mm
penguins |>
  select(species:flipper_length_mm)

# A tibble: 344 × 5
   species island    bill_length_mm bill_depth_mm flipper_length_mm
   <fct>   <fct>              <dbl>         <dbl>             <int>
 1 Adelie  Torgersen           39.1          18.7               181
 2 Adelie  Torgersen           39.5          17.4               186
 3 Adelie  Torgersen           40.3          18                 195
 4 Adelie  Torgersen           NA            NA                  NA
 5 Adelie  Torgersen           36.7          19.3               193
 6 Adelie  Torgersen           39.3          20.6               190
 7 Adelie  Torgersen           38.9          17.8               181
 8 Adelie  Torgersen           39.2          19.6               195
 9 Adelie  Torgersen           34.1          18.1               193
10 Adelie  Torgersen           42            20.2               190
# ℹ 334 more rows

Selección de todas las columnas que cumplen una condición:

# Selección de las columnas numéricas
penguins |>
  select(where(is.numeric))

# A tibble: 344 × 5
   bill_length_mm bill_depth_mm flipper_length_mm body_mass_g  year
            <dbl>         <dbl>             <int>       <int> <int>
 1           39.1          18.7               181        3750  2007
 2           39.5          17.4               186        3800  2007
 3           40.3          18                 195        3250  2007
 4           NA            NA                  NA          NA  2007
 5           36.7          19.3               193        3450  2007
 6           39.3          20.6               190        3650  2007
 7           38.9          17.8               181        3625  2007
 8           39.2          19.6               195        4675  2007
 9           34.1          18.1               193        3475  2007
10           42            20.2               190        4250  2007
# ℹ 334 more rows
…
# A tibble: 3 × 8
  species island    bill_length_mm bill_depth_mm flipper_length_mm body_mass_g
  <fct>   <fct>              <dbl>         <dbl>             <int>       <int>
1 Adelie  Torgersen           46            21.5               194        4200
2 Adelie  Torgersen           45.8          18.9               197        4150
3 Adelie  Biscoe              45.6          20.3               191        4600
# ℹ 2 more variables: sex <fct>, year <int>

# Pingüinos de las especies 'Adelie' o 'Gentoo'
penguins |>
  filter(species == 'Adelie' | species == 'Gentoo')

# A tibble: 276 × 8
   species island    bill_length_mm bill_depth_mm flipper_length_mm body_mass_g
   <fct>   <fct>              <dbl>         <dbl>             <int>       <int>
 1 Adelie  Torgersen           39.1          18.7               181        3750
 2 Adelie  Torgersen           39.5          17.4               186        3800
 3 Adelie  Torgersen           40.3          18                 195        3250
 4 Adelie  Torgersen           NA            NA                  NA          NA
 5 Adelie  Torgersen           36.7          19.3               193        3450
 6 Adelie  Torgersen           39.3          20.6               190        3650
 7 Adelie  Torgersen           38.9          17.8               181        3625
 8 Adelie  Torgersen           39.2          19.6               195        4675
 9 Adelie  Torgersen           34.1          18.1               193        3475
10 Adelie  Torgersen           42            20.2               190        4250
# ℹ 266 more rows
# ℹ 2 more variables: sex <fct>, year <int>

# Pingüinos de especies diferentes a 'Chinstrap'
penguins |>
  filter(!(species == 'Chinstrap'))

# A tibble: 276 × 8
   species island    bill_length_mm bill_depth_mm flipper_length_mm body_mass_g
   <fct>   <fct>              <dbl>         <dbl>             <int>       <int>
 1 Adelie  Torgersen           39.1          18.7               181        3750
 2 Adelie  Torgersen           39.5          17.4               186        3800
 3 Adelie  Torgersen           40.3          18                 195        3250
 4 Adelie  Torgersen           NA            NA                  NA          NA
 5 Adelie  Torgersen           36.7          19.3               193        3450
 6 Adelie  Torgersen           39.3          20.6               190        3650
 7 Adelie  Torgersen           38.9          17.8               181        3625
 8 Adelie  Torgersen           39.2          19.6               195        4675
 9 Adelie  Torgersen           34.1          18.1               193        3475
10 Adelie  Torgersen           42            20.2               190        4250
# ℹ 266 more rows
# ℹ 2 more variables: sex <fct>, year <int>
…
  SubDelito  Canton      Fecha Victima          Edad Nacionalidad
1 HOMICIDIO ESPARZA 05/13/2022 PERSONA   Desconocido  Desconocido
2 HOMICIDIO ESPARZA 04/08/2022 PERSONA Mayor de edad     COLOMBIA

# Pingüinos con longitud del pico mayor o igual al promedio
#   El argumento lógico na.rm de mean() 
#   indica si los valores NA ("not available") 
#   deben ser removidos antes del cálculo
penguins |>
  filter(bill_length_mm >= mean(bill_length_mm, na.rm = TRUE))

# A tibble: 175 × 8
   species island    bill_length_mm bill_depth_mm flipper_length_mm body_mass_g
   <fct>   <fct>              <dbl>         <dbl>             <int>       <int>
 1 Adelie  Torgersen           46            21.5               194        4200
 2 Adelie  Dream               44.1          19.7               196        4400
 3 Adelie  Torgersen           45.8          18.9               197        4150
 4 Adelie  Biscoe              45.6          20.3               191        4600
 5 Adelie  Torgersen           44.1          18                 210        4000
 6 Gentoo  Biscoe              46.1          13.2               211        4500
 7 Gentoo  Biscoe              50            16.3               230        5700
 8 Gentoo  Biscoe              48.7          14.1               210        4450
 9 Gentoo  Biscoe              50            15.2               218        5700
10 Gentoo  Biscoe              47.6          14.5               215        5400
# ℹ 165 more rows
# ℹ 2 more variables: sex <fct>, year <int>
…
La función tidyr::drop_na() remueve las filas con valores NA en una o varias columnas.

# Filas con valor diferente a NA en la columna sex
penguins |>
  select(species,
         bill_length_mm,
         bill_depth_mm,
         flipper_length_mm,
         body_mass_g,
         sex) |>
  drop_na(sex)

# A tibble: 333 × 6
   species bill_length_mm bill_depth_mm flipper_length_mm body_mass_g sex   
   <fct>            <dbl>         <dbl>             <int>       <int> <fct> 
 1 Adelie            39.1          18.7               181        3750 male  
 2 Adelie            39.5          17.4               186        3800 female
 3 Adelie            40.3          18                 195        3250 female
 4 Adelie            36.7          19.3               193        3450 female
 5 Adelie            39.3          20.6               190        3650 male  
 6 Adelie            38.9          17.8               181        3625 female
 7 Adelie            39.2          19.6               195        4675 male  
 8 Adelie            41.1          17.6               182        3200 female
 9 Adelie            38.6          21.2               191        3800 male  
10 Adelie            34.6          21.1               198        4400 male  
# ℹ 323 more rows

# Filas con valor diferente a NA en cualquier columna
penguins |>
  select(species,
         bill_length_mm,
         bill_depth_mm,
         flipper_length_mm,
         body_mass_g,
         sex) |>
  drop_na()

# A tibble: 333 × 6
   species bill_length_mm bill_depth_mm flipper_length_mm body_mass_g sex   
   <fct>            <dbl>         <dbl>             <int>       <int> <fct> 
 1 Adelie            39.1          18.7               181        3750 male  
 2 Adelie            39.5          17.4               186        3800 female
 3 Adelie            40.3          18                 195        3250 female
 4 Adelie            36.7          19.3               193        3450 female
 5 Adelie            39.3          20.6               190        3650 male  
 6 Adelie            38.9          17.8               181        3625 female
 7 Adelie            39.2          19.6               195        4675 male  
 8 Adelie            41.1          17.6               182        3200 female
 9 Adelie            38.6          21.2               191        3800 male  
10 Adelie            34.6          21.1               198        4400 male  
# ℹ 323 more rows

10.6.3 arrange()

La función arrange() cambia el orden de las filas de un data frame de acuerdo con los valores de las columnas seleccionadas.

# Ordenamiento ascendente por las columnas 
# bill_length_mm y bill_depth_mm
penguins |>
  arrange(bill_length_mm, bill_depth_mm)

# A tibble: 344 × 8
   species island    bill_length_mm bill_depth_mm flipper_length_mm body_mass_g
   <fct>   <fct>              <dbl>         <dbl>             <int>       <int>
 1 Adelie  Dream               32.1          15.5               188        3050
 2 Adelie  Dream               33.1          16.1               178        2900
 3 Adelie  Torgersen           33.5          19                 190        3600
 4 Adelie  Dream               34            17.1               185        3400
 5 Adelie  Torgersen           34.1          18.1               193        3475
 6 Adelie  Torgersen           34.4          18.4               184        3325
 7 Adelie  Biscoe              34.5          18.1               187        2900
 8 Adelie  Torgersen           34.6          17.2               189        3200
 9 Adelie  Torgersen           34.6          21.1               198        4400
10 Adelie  Biscoe              35            17.9               190        3450
# ℹ 334 more rows
# ℹ 2 more variables: sex <fct>, year <int>

Por defecto, las columnas se ordenan de manera acendente. Si se desea un orden descendente, puede utilizarse la función desc().

# Ordenamiento descendente por las columnas 
# bill_length_mm y bill_depth_mm
penguins |>
  arrange(desc(bill_length_mm), desc(bill_depth_mm))

# A tibble: 344 × 8
   species   island bill_length_mm bill_depth_mm flipper_length_mm body_mass_g
   <fct>     <fct>           <dbl>         <dbl>             <int>       <int>
 1 Gentoo    Biscoe           59.6          17                 230        6050
 2 Chinstrap Dream            58            17.8               181        3700
 3 Gentoo    Biscoe           55.9          17                 228        5600
 4 Chinstrap Dream            55.8          19.8               207        4000
 5 Gentoo    Biscoe           55.1          16                 230        5850
 6 Gentoo    Biscoe           54.3          15.7               231        5650
 7 Chinstrap Dream            54.2          20.8               201        4300
 8 Chinstrap Dream            53.5          19.9               205        4500
 9 Gentoo    Biscoe           53.4          15.8               219        5500
10 Chinstrap Dream            52.8          20                 205        4550
# ℹ 334 more rows
# ℹ 2 more variables: sex <fct>, year <int>

Nótese que los valores NA se ubican al final de cualquier ordenamiento.

10.6.4 mutate()

La función mutate() crea o modifica columnas en un data frame.

# Creación de la columna body_mass_kg,
# correspondiente al valor de body_mass_g, pero expresado en kg
penguins |>
  select(species, body_mass_g) |>
  mutate(body_mass_kg = body_mass_g/1000)

# A tibble: 344 × 3
   species body_mass_g body_mass_kg
   <fct>         <int>        <dbl>
 1 Adelie         3750         3.75
 2 Adelie         3800         3.8 
 3 Adelie         3250         3.25
 4 Adelie           NA        NA   
 5 Adelie         3450         3.45
 6 Adelie         3650         3.65
 7 Adelie         3625         3.62
 8 Adelie         4675         4.68
 9 Adelie         3475         3.48
10 Adelie         4250         4.25
# ℹ 334 more rows

# Creación de las columnas body_mass_g_mean (promedio de masa) y
# body_mass_g_normalized (masa normalizada con respecto al promedio)
penguins |>
  select(species, body_mass_g) |>
  mutate(body_mass_g_mean = mean(body_mass_g, na.rm = TRUE)) |>
  mutate(body_mass_g_normalized = body_mass_g / body_mass_g_mean)

# A tibble: 344 × 4
   species body_mass_g body_mass_g_mean body_mass_g_normalized
   <fct>         <int>            <dbl>                  <dbl>
 1 Adelie         3750            4202.                  0.892
 2 Adelie         3800            4202.                  0.904
 3 Adelie         3250            4202.                  0.773
 4 Adelie           NA            4202.                 NA    
 5 Adelie         3450            4202.                  0.821
 6 Adelie         3650            4202.                  0.869
 7 Adelie         3625            4202.                  0.863
 8 Adelie         4675            4202.                  1.11 
 9 Adelie         3475            4202.                  0.827
10 Adelie         4250            4202.                  1.01 
# ℹ 334 more rows
…
La función group_by() agrupa una o más columnas. Generalmente, esto se hace con el objetivo de rea

# Creación de la columnas 
# body_mass_g_mean_species (promedio de masa de la especie) y
# body_mass_g_species_normalized (masa normalizada con respecto al promedio de la especie)
penguins |>
  select(species, body_mass_g) |>
  group_by(species) |>
  mutate(body_mass_g_mean_species = mean(body_mass_g, na.rm = TRUE)) |>
  mutate(body_mass_g_species_normalized = body_mass_g / body_mass_g_mean_species)

# A tibble: 344 × 4
# Groups:   species [3]
   species body_mass_g body_mass_g_mean_species body_mass_g_species_normalized
   <fct>         <int>                    <dbl>                          <dbl>
 1 Adelie         3750                    3701.                          1.01 
 2 Adelie         3800                    3701.                          1.03 
 3 Adelie         3250                    3701.                          0.878
 4 Adelie           NA                    3701.                         NA    
 5 Adelie         3450                    3701.                          0.932
 6 Adelie         3650                    3701.                          0.986
 7 Adelie         3625                    3701.                          0.980
 8 Adelie         4675                    3701.                          1.26 
 9 Adelie         3475                    3701.                          0.939
10 Adelie         4250                    3701.                          1.15 
# ℹ 334 more rows
…
